{
  "images" : [
    {
      "idiom" : "universal",
      "filename" : "85d10e6014707e1cf68b917b1a197963.jpg",
      "scale" : "1x"
    },
    {
      "idiom" : "universal",
      "filename" : "85d10e6014707e1cf68b917b1a197963-1.jpg",
      "scale" : "2x"
    },
    {
      "idiom" : "universal",
      "filename" : "85d10e6014707e1cf68b917b1a197963-2.jpg",
      "scale" : "3x"
    }
  ],
  "info" : {
    "version" : 1,
    "author" : "xcode"
  }
}